Parse NOAA Integrated Surface Data Files • rOpenSci: isdparser
…
install.packages("isdparser")

Dev version

remotes::install_github("ropensci/isdparser")

library('isdparser')

isd_parse_csv: parse a CSV file

Using a csv file included in the package:

path <- system.file('extdata/00702699999.csv', package = "isdparser")
isd_parse_csv(path)
#> # A tibble: 6,843 x 68
#>    station date                source latitude longitude elevation name 
#>      <int> <dttm>               <int>    <dbl>     <dbl>     <dbl> <chr>
#>  1  7.03e8 2017-02-10 14:04:00      4        0         0      7026 WXPO…
#>  2  7.03e8 2017-02-10 14:14:00      4        0         0      7026 WXPO…
#>  3  7.03e8 2017-02-10 14:19:00      4        0         0      7026 WXPO…
#>  4  7.03e8 2017-02-10 14:24:00      4        0         0      7026 WXPO…
#>  5  7.03e8 2017-02-10 14:29:00      4        0         0      7026 WXPO…
#>  6  7.03e8 2017-02-10 14:34:00      4        0         0      7026 WXPO…
#>  7  7.03e8 2017-02-10 14:39:00      4        0         0      7026 WXPO…
#>  8  7.03e8 2017-02-10 14:44:00      4        0         0      7026 WXPO…
#>  9  7.03e8 2017-02-10 14:49:00      4        0         0      7026 WXPO…
#> 10  7.03e8 2017-02-10 14:54:00      4        0         0      7026 WXPO…
#> # … with 6,833 more rows, and 61 more variables: report_type <chr>,
#> #   call_sign <int>, quality_control <chr>, wnd <chr>, cig <chr>, vis <chr>,
#> #   tmp <chr>, dew <chr>, slp <chr>, wind_direction <chr>,
#> #   wind_direction_quality <chr>, wind_code <chr>, wind_speed <chr>,
#> #   wind_speed_quality <chr>, ceiling_height <chr>,
#> #   ceiling_height_quality <chr>, ceiling_height_determination <chr>,
#> #   ceiling_height_cavok <chr>, visibility_distance <chr>,
#> #   visibility_distance_quality <chr>, visibility_code <chr>,
#> #   visibility_code_quality <chr>, temperature <chr>,
…
isd_parse: parse a file with ASCII strings

path <- system.file('extdata/024130-99999-2016.gz', package = "isdparser")
isd_parse(path)
#> # A tibble: 2,601 x 38
#>    total_chars usaf_station wban_station date  time  date_flag latitude
#>    <chr>       <chr>        <chr>        <chr> <chr> <chr>     <chr>   
#>  1 0054        024130       99999        2016… 0000  4         +60750  
#>  2 0054        024130       99999        2016… 0100  4         +60750  
#>  3 0054        024130       99999        2016… 0200  4         +60750  
#>  4 0054        024130       99999        2016… 0300  4         +60750  
#>  5 0054        024130       99999        2016… 0400  4         +60750  
#>  6 0039        024130       99999        2016… 0500  4         +60750  
#>  7 0054        024130       99999        2016… 0600  4         +60750  
#>  8 0039        024130       99999        2016… 0700  4         +60750  
#>  9 0054        024130       99999        2016… 0800  4         +60750  
#> 10 0054        024130       99999        2016… 0900  4         +60750  
#> # … with 2,591 more rows, and 31 more variables: longitude <chr>,
#> #   type_code <chr>, elevation <chr>, call_letter <chr>, quality <chr>,
#> #   wind_direction <chr>, wind_direction_quality <chr>, wind_code <chr>,
#> #   wind_speed <chr>, wind_speed_quality <chr>, ceiling_height <chr>,
#> #   ceiling_height_quality <chr>, ceiling_height_determination <chr>,
#> #   ceiling_height_cavok <chr>, visibility_distance <chr>,
#> #   visibility_distance_quality <chr>, visibility_code <chr>,
#> #   visibility_code_quality <chr>, temperature <chr>,
#> #   temperature_quality <chr>, temperature_dewpoint <chr>,
…
