Parse NOAA ISD/ISH data files — isd_parse • rOpenSci: isdparser
…
    ftp://ftp.ncdc.noaa.gov/pub/data/noaa

    See also

    isd_parse_line

    Examples

path <- system.file('extdata/104270-99999-1928.gz', package = "isdparser")

(res <- isd_parse(path))

#> <path>/cache/isdparser/extdata/104270-99999-1928.gz
#> # A tibble: 376 x 31
#>    total_chars usaf_station wban_station date     time  date_flag latitude
#>    <chr>       <chr>        <chr>        <chr>    <chr> <chr>     <chr>   
#>  1 0076        104270       99999        19280401 0600  4         +51183  
#>  2 0067        104270       99999        19280402 0600  4         +51183  
#>  3 0067        104270       99999        19280403 0600  4         +51183  
#>  4 0089        104270       99999        19280423 0600  4         +51183  
#>  5 0067        104270       99999        19280501 0600  4         +51183  
#>  6 0043        104270       99999        19280501 1200  4         +51183  
#>  7 0085        104270       99999        19280502 0600  4         +51183  
#>  8 0056        104270       99999        19280502 1200  4         +51183  
#>  9 0050        104270       99999        19280503 0600  4         +51183  
#> 10 0037        104270       99999        19280503 1200  4         +51183  
#> # … with 366 more rows, and 24 more variables: longitude <chr>,
#> #   type_code <chr>, elevation <chr>, call_letter <chr>, quality <chr>,
#> #   wind_direction <chr>, wind_direction_quality <chr>, wind_code <chr>,
#> #   wind_speed <chr>, wind_speed_quality <chr>, ceiling_height <chr>,
#> #   ceiling_height_quality <chr>, ceiling_height_determination <chr>,
#> #   ceiling_height_cavok <chr>, visibility_distance <chr>,
#> #   visibility_distance_quality <chr>, visibility_code <chr>,
#> #   visibility_code_quality <chr>, temperature <chr>,
#> #   temperature_quality <chr>, temperature_dewpoint <chr>,
…
#> # A tibble: 376 x 31
#>    total_chars usaf_station wban_station date     time  date_flag latitude
#>    <chr>       <chr>        <chr>        <chr>    <chr> <chr>     <chr>   
#>  1 0076        104270       99999        19280401 0600  4         +51183  
#>  2 0067        104270       99999        19280402 0600  4         +51183  
#>  3 0067        104270       99999        19280403 0600  4         +51183  
#>  4 0089        104270       99999        19280423 0600  4         +51183  
#>  5 0067        104270       99999        19280501 0600  4         +51183  
#>  6 0043        104270       99999        19280501 1200  4         +51183  
#>  7 0085        104270       99999        19280502 0600  4         +51183  
#>  8 0056        104270       99999        19280502 1200  4         +51183  
#>  9 0050        104270       99999        19280503 0600  4         +51183  
#> 10 0037        104270       99999        19280503 1200  4         +51183  
#> # … with 366 more rows, and 24 more variables: longitude <chr>,
#> #   type_code <chr>, elevation <chr>, call_letter <chr>, quality <chr>,
#> #   wind_direction <chr>, wind_direction_quality <chr>, wind_code <chr>,
#> #   wind_speed <chr>, wind_speed_quality <chr>, ceiling_height <chr>,
#> #   ceiling_height_quality <chr>, ceiling_height_determination <chr>,
#> #   ceiling_height_cavok <chr>, visibility_distance <chr>,
#> #   visibility_distance_quality <chr>, visibility_code <chr>,
#> #   visibility_code_quality <chr>, temperature <chr>,
#> #   temperature_quality <chr>, temperature_dewpoint <chr>,
#> #   temperature_dewpoint_quality <chr>, air_pressure <chr>,
#> #   air_pressure_quality <chr>

# only control + mandatory sections
(res <- isd_parse(path, additional = FALSE))

#> <path>/cache/isdparser/extdata/104270-99999-1928.gz
#> # A tibble: 376 x 31
#>    total_chars usaf_station wban_station date     time  date_flag latitude
#>    <chr>       <chr>        <chr>        <chr>    <chr> <chr>     <chr>   
#>  1 0076        104270       99999        19280401 0600  4         +51183  
#>  2 0067        104270       99999        19280402 0600  4         +51183  
#>  3 0067        104270       99999        19280403 0600  4         +51183  
#>  4 0089        104270       99999        19280423 0600  4         +51183  
#>  5 0067        104270       99999        19280501 0600  4         +51183  
#>  6 0043        104270       99999        19280501 1200  4         +51183  
#>  7 0085        104270       99999        19280502 0600  4         +51183  
#>  8 0056        104270       99999        19280502 1200  4         +51183  
#>  9 0050        104270       99999        19280503 0600  4         +51183  
#> 10 0037        104270       99999        19280503 1200  4         +51183  
#> # … with 366 more rows, and 24 more variables: longitude <chr>,
#> #   type_code <chr>, elevation <chr>, call_letter <chr>, quality <chr>,
#> #   wind_direction <chr>, wind_direction_quality <chr>, wind_code <chr>,
#> #   wind_speed <chr>, wind_speed_quality <chr>, ceiling_height <chr>,
#> #   ceiling_height_quality <chr>, ceiling_height_determination <chr>,
#> #   ceiling_height_cavok <chr>, visibility_distance <chr>,
#> #   visibility_distance_quality <chr>, visibility_code <chr>,
#> #   visibility_code_quality <chr>, temperature <chr>,
#> #   temperature_quality <chr>, temperature_dewpoint <chr>,
…
