Parse NOAA ISD/ISH csv data files — isd_parse_csv • rOpenSci: isdparser
…
    References

    https://www.ncei.noaa.gov/data/global-hourly/access/
https://www.ncei.noaa.gov/data/global-hourly/doc/CSV_HELP.pdf
https://www.ncei.noaa.gov/data/global-hourly/doc/isd-format-document.pdf

    Examples

path <- system.file('extdata/00702699999.csv', package = "isdparser")
(res <- isd_parse_csv(path))

#> <path>/cache/isdparser/extdata/00702699999.csv
#> # A tibble: 6,843 x 68
#>      station date                source latitude longitude elevation name       
#>        <int> <dttm>               <int>    <dbl>     <dbl>     <dbl> <chr>      
#>  1 702699999 2017-02-10 14:04:00      4        0         0      7026 WXPOD 7026…
#>  2 702699999 2017-02-10 14:14:00      4        0         0      7026 WXPOD 7026…
#>  3 702699999 2017-02-10 14:19:00      4        0         0      7026 WXPOD 7026…
#>  4 702699999 2017-02-10 14:24:00      4        0         0      7026 WXPOD 7026…
#>  5 702699999 2017-02-10 14:29:00      4        0         0      7026 WXPOD 7026…
#>  6 702699999 2017-02-10 14:34:00      4        0         0      7026 WXPOD 7026…
#>  7 702699999 2017-02-10 14:39:00      4        0         0      7026 WXPOD 7026…
#>  8 702699999 2017-02-10 14:44:00      4        0         0      7026 WXPOD 7026…
#>  9 702699999 2017-02-10 14:49:00      4        0         0      7026 WXPOD 7026…
#> 10 702699999 2017-02-10 14:54:00      4        0         0      7026 WXPOD 7026…
#> # … with 6,833 more rows, and 61 more variables: report_type <chr>,
#> #   call_sign <int>, quality_control <chr>, wnd <chr>, cig <chr>, vis <chr>,
#> #   tmp <chr>, dew <chr>, slp <chr>, wind_direction <chr>,
#> #   wind_direction_quality <chr>, wind_code <chr>, wind_speed <chr>,
#> #   wind_speed_quality <chr>, ceiling_height <chr>,
#> #   ceiling_height_quality <chr>, ceiling_height_determination <chr>,
#> #   ceiling_height_cavok <chr>, visibility_distance <chr>,
#> #   visibility_distance_quality <chr>, visibility_code <chr>,
#> #   visibility_code_quality <chr>, temperature <chr>,
…
